{
    "gaming": "(batteryLife * 0.1) + (cpuModel * 1.8) + (displaySize * 1.7) + (displayType * 1) + (memorySize * 2) + (memorySpeed * 2) + (memoryType * 2) + (primaryStorage + primaryStorageCap ) + (secondaryStorage + secondaryStorageCap) + (gpuModel * 1.8)",
    "business": "(batteryLife * 1.6) + (cpuModel * 1.2) + (displaySize * 0.7) + (displayType * 1) + (memorySize * 1.4) + (memorySpeed * 1.2) + (memoryType * 1) + (primaryStorage + primaryStorageCap )+ (secondaryStorage + secondaryStorageCap) + (gpuModel * 0.3)",
    "casual": "(batteryLife * 1.5) + (cpuModel * 1) + (displaySize * 0.1) + (displayType * 1) + (memorySize * 0.8) + (memorySpeed * 0.4) + (memoryType * 1) + (primaryStorage + primaryStorageCap )+ (secondaryStorage + secondaryStorageCap) + (gpuModel * 0.1)",
    "contentcreating" : "(batteryLife * 1.2) + (cpuModel * 1.4) + (displaySize * 10) + (displayType * 1.6) + (memorySize * 1.6) + (memorySpeed * 1.8) + (memoryType * 1.8) + (primaryStorage + primaryStorageCap )+ (secondaryStorage + secondaryStorageCap) + (gpuModel * 2)"
}