{
  "code": 26,
  "result": {
    "0": {
      "model_info": [
        {
          "name": "Dell Inspiron 15 7577 Gaming"
        }
      ],
      "model_resources": {
        "image_1": "https://noteb.com/res/img/models/970_1.jpg",
        "image_2": "https://noteb.com/res/img/models/970_2.jpg"
      },
      "cpu": {
        "prod": "Intel",
        "model": "i5-7300HQ",
        "base_speed": "2.50",
        "boost_speed": "3.50",
        "cores": "4"
      },
      "display": {
        "size": "15.6",
        "horizontal_resolution": "1920",
        "vertical_resolution": "1080",
        "type": "LED IPS",
        "touch": "no"
      },
      "memory": { "size": "8", "speed": "2400", "type": "DDR4" },
      "primary_storage": {
        "model": "SSD M.2 PCIe",
        "cap": "256"
      },
      "secondary_storage": {
        "model": "N/A",
        "cap": "0"
      },
      "gpu": {
        "prod": "Nvidia",
        "model": "GeForce GTX 1060 Max-Q",
        "memory_size": "6144",
        "memory_type": "GDDR5",
        "rating": "39.1"
      },
      "wireless_card": {
        "model": "802.11 ac"
      },
      "optical_drive": { "type": "none" },
      "config_score": "43.55",
      "battery_life_hours": "4:20"
    }
  }
}
