{
  "code": 26,
  "message": "Valid method.",
  "result": {
    "0": {
      "model_info": [
        {
          "id": 1251,
          "noteb_name": "Google Pixelbook GA00122-US (i5) (US)",
          "name": "Google Pixelbook GA00122-US (i5)",
          "submodel_info": ["(US)"]
        }
      ],
      "config_id": "14496267745155999744",
      "model_resources": {
        "thumbnail": "https://noteb.com/res/img/models/thumb/t_991_1.jpg",
        "image_1": "https://noteb.com/res/img/models/991_1.jpg",
        "image_2": "https://noteb.com/res/img/models/991_2.jpg",
        "image_3": "https://noteb.com/res/img/models/991_3.jpg",
        "image_4": "https://noteb.com/res/img/models/991_4.jpg",
        "official_link": "https://store.google.com/us/product/google_pixelbook",
        "official_link2": "4",
        "launch_date": "2017-10-31",
        "primary_model": "1251"
      },
      "cpu": {
        "prod": "Intel",
        "model": "i5-7Y57",
        "lithography": "14",
        "cache": "4",
        "base_speed": "1.20",
        "boost_speed": "3.30",
        "cores": "2",
        "tdp": "5",
        "other_info": "SSE4.2,AVX2.0,64-bit,HT,VT-x,TBT 2.0,vPro",
        "rating": "35.6",
        "integrated_video_id": "386",
        "integrated_video": "Intel HD Graphics 615"
      },
      "display": {
        "size": "12.3",
        "horizontal_resolution": "2400",
        "vertical_resolution": "1600",
        "type": "LED IPS",
        "sRGB": "95",
        "touch": "no",
        "other_info": ""
      },
      "memory": { "size": "8", "speed": "2133", "type": "DDR4" },
      "primary_storage": {
        "model": "SSD M.2 PCIe",
        "cap": "256",
        "rpm": null,
        "read_speed": "850"
      },
      "secondary_storage": {
        "model": "N/A",
        "cap": "0",
        "rpm": null,
        "read_speed": null
      },
      "gpu": {
        "prod": "Intel",
        "model": "HD Graphics 615",
        "architecture": "Kaby Lake",
        "lithography": "14",
        "shaders": "24",
        "base_speed": "300",
        "boost_speed": "950",
        "shader_speed": "300",
        "memory_speed": "933",
        "memory_bandwidth": "128",
        "memory_size": "1700",
        "memory_type": "DDR3",
        "tdp": "0",
        "other_info": "HDMI 1.4 (4096x2160 @ 24Hz)",
        "rating": "3.0"
      },
      "wireless_card": {
        "model": "802.11 ac",
        "speed": "867",
        "other_info": "Bluetooth 4.x,dual band,2 x antennas"
      },
      "optical_drive": { "type": "none", "other_info": "" },
      "motherboard": {
        "ram_slots": "2",
        "lan_card": "none",
        "storage_slots": "1 X M.2 SATA/PCIe",
        "other_info": "HD audio"
      },
      "chassis": {
        "height_cm": "1.03",
        "height_inch": "0.41",
        "depth_cm": "22.00",
        "depth_inch": "8.66",
        "width_cm": "29.00",
        "width_inch": "11.42",
        "colors": "Silver",
        "build_materials": "Aluminium",
        "peripheral_interfaces": "2 X USB-C 3.1,SD card reader",
        "video_interfaces": "",
        "webcam_mp": "0.920",
        "keyboard_type": "Backlit keyboard",
        "charger": "45W (2.25A - 20VDC)",
        "other_info": "2 x speakers,Microphone array,Stylus (optional)"
      },
      "battery": { "capacity": "41", "cell_type": "Li-Ion", "other_info": "" },
      "warranty": {
        "years": "1",
        "type_short": "Standard",
        "type_long": "Standard Pick-up & Return"
      },
      "operating_system": "Chrome OS  1.00",
      "config_score": "36.71",
      "config_price": "949",
      "config_price_min": "913",
      "config_price_max": "985",
      "battery_life_raw": "7.8",
      "battery_life_hours": "7:45",
      "total_storage_capacity": "256"
    }
  },
  "daily_hits_left": "224"
}
