{
  "code": 26,
  "message": "Valid method.",
  "result": {
    "0": {
      "model_info": [
        {
          "id": 1204,
          "noteb_name": "Acer Swift 3 SF314-52G  (2017) (US)",
          "name": "Acer Swift 3 SF314-52G",
          "submodel_info": [" (2017)", "(US)"]
        }
      ],
      "config_id": "16198404690475999232",
      "model_resources": {
        "thumbnail": "https://noteb.com/res/img/models/thumb/t_856_1.jpg",
        "image_1": "https://noteb.com/res/img/models/856_1.jpg",
        "image_2": "https://noteb.com/res/img/models/856_2.jpg",
        "image_3": "https://noteb.com/res/img/models/856_3.jpg",
        "image_4": "https://noteb.com/res/img/models/856_4.jpg",
        "official_link": "https://geizhals.eu/?fs=sf314-52&in=",
        "official_link2": "9",
        "launch_date": "2017-07-27",
        "primary_model": "1204"
      },
      "cpu": {
        "prod": "Intel",
        "model": "i7-7500U",
        "lithography": "14",
        "cache": "4",
        "base_speed": "2.70",
        "boost_speed": "3.50",
        "cores": "2",
        "tdp": "15",
        "other_info": "SSE4.2,AVX2.0,64-bit,HT,VT-x,VT-d,TBT 2.0",
        "rating": "42.3",
        "integrated_video_id": "379",
        "integrated_video": "Intel HD Graphics 620"
      },
      "display": {
        "size": "14.0",
        "horizontal_resolution": "1920",
        "vertical_resolution": "1080",
        "type": "LED IPS",
        "sRGB": "70",
        "touch": "no",
        "other_info": "60Hz"
      },
      "memory": { "size": "8", "speed": "2133", "type": "DDR3" },
      "primary_storage": {
        "model": "SSD M.2 PCIe",
        "cap": "512",
        "rpm": null,
        "read_speed": "900"
      },
      "secondary_storage": {
        "model": "N/A",
        "cap": "0",
        "rpm": null,
        "read_speed": null
      },
      "gpu": {
        "prod": "Nvidia",
        "model": "GeForce MX150",
        "architecture": "Pascal",
        "lithography": "14",
        "shaders": "384",
        "base_speed": "1227",
        "boost_speed": "1468",
        "shader_speed": "1227",
        "memory_speed": "1502",
        "memory_bandwidth": "64",
        "memory_size": "2048",
        "memory_type": "GDDR5",
        "tdp": "30",
        "other_info": "GPU Boost 3.0,Optimus,Nvidia PhysX,Nvidia CUDA",
        "rating": "13.0"
      },
      "wireless_card": {
        "model": "802.11 ac",
        "speed": "867",
        "other_info": "Bluetooth 4.x,dual band,2 x antennas"
      },
      "optical_drive": { "type": "none", "other_info": "" },
      "motherboard": {
        "ram_slots": "soldered",
        "lan_card": "none",
        "storage_slots": "1 X M.2 SATA/PCIe",
        "other_info": "Realtek audio,Optimus"
      },
      "chassis": {
        "height_cm": "1.80",
        "height_inch": "0.71",
        "depth_cm": "23.40",
        "depth_inch": "9.21",
        "width_cm": "33.80",
        "width_inch": "13.31",
        "colors": "Silver",
        "build_materials": "Aluminium",
        "peripheral_interfaces": "1 X USB 2.0,1 X USB-C 3.1,2 X USB 3.0,SD card reader",
        "video_interfaces": "1 X HDMI",
        "webcam_mp": "0.920",
        "keyboard_type": "Backlit Chiclet keyboard",
        "charger": "65W (3.42A - 19VDC),45W (2.37A - 19VDC)",
        "other_info": "2 x speakers,Microphone array,Fingerprint reader"
      },
      "battery": { "capacity": "48", "cell_type": "Li-Ion", "other_info": "" },
      "warranty": {
        "years": "2",
        "type_short": "Standard",
        "type_long": "2 years is standard in Europe. Usually not available in other regions."
      },
      "operating_system": "Windows Home 10.00",
      "config_score": "38.33",
      "config_price": "1316",
      "config_price_min": "1300",
      "config_price_max": "1332",
      "battery_life_raw": "6.1",
      "battery_life_hours": "6:05",
      "total_storage_capacity": "512"
    }
  },
  "daily_hits_left": "271"
}
