{
  "code": 26,
  "message": "Valid method.",
  "result": {
    "0": {
      "model_info": [
        {
          "id": 1178,
          "noteb_name": "Dell Inspiron 13 5379 2-in-1 (US)",
          "name": "Dell Inspiron 13 5379 2-in-1",
          "submodel_info": ["(US)"]
        }
      ],
      "config_id": "18032789193233000448",
      "model_resources": {
        "thumbnail": "https://noteb.com/res/img/models/thumb/t_971_1.jpg",
        "image_1": "https://noteb.com/res/img/models/971_1.jpg",
        "image_2": "https://noteb.com/res/img/models/971_2.jpg",
        "image_3": "https://noteb.com/res/img/models/971_3.jpg",
        "image_4": null,
        "official_link": "http://www.dell.com/en-us/work/shop/dell-laptops-netbooks-and-tablets/new-inspiron-13-5000-2-in-1/spd/inspiron-13-5379-2-in-1-laptop",
        "official_link2": "14",
        "launch_date": "2017-09-28",
        "primary_model": "1178"
      },
      "cpu": {
        "prod": "Intel",
        "model": "i5-8250U",
        "lithography": "14",
        "cache": "6",
        "base_speed": "1.60",
        "boost_speed": "3.40",
        "cores": "4",
        "tdp": "15",
        "other_info": "SSE4.2,AVX2.0,64-bit,HT,VT-x,VT-d,TBT 2.0",
        "rating": "47.9",
        "integrated_video_id": "451",
        "integrated_video": "Intel HD Graphics 620"
      },
      "display": {
        "size": "13.3",
        "horizontal_resolution": "1920",
        "vertical_resolution": "1080",
        "type": "LED IPS",
        "sRGB": "60",
        "touch": "no",
        "other_info": ""
      },
      "memory": { "size": "8", "speed": "2400", "type": "DDR4" },
      "primary_storage": {
        "model": "HDD",
        "cap": "1000",
        "rpm": "5400",
        "read_speed": "114"
      },
      "secondary_storage": {
        "model": "N/A",
        "cap": "0",
        "rpm": null,
        "read_speed": null
      },
      "gpu": {
        "prod": "Intel",
        "model": "HD Graphics 620",
        "architecture": "Kaby Lake",
        "lithography": "14",
        "shaders": "24",
        "base_speed": "300",
        "boost_speed": "1100",
        "shader_speed": "300",
        "memory_speed": "1067",
        "memory_bandwidth": "128",
        "memory_size": "1700",
        "memory_type": "DDR4",
        "tdp": "0",
        "other_info": "HDMI 1.4 (4096x2160 @ 24Hz)",
        "rating": "3.8"
      },
      "wireless_card": {
        "model": "802.11 ac",
        "speed": "867",
        "other_info": "Bluetooth 4.x,dual band,2 x antennas"
      },
      "optical_drive": { "type": "none", "other_info": "" },
      "motherboard": {
        "ram_slots": "2",
        "lan_card": "none",
        "storage_slots": "1 X SATA 3.0",
        "other_info": "Realtek audio"
      },
      "chassis": {
        "height_cm": "2.04",
        "height_inch": "0.80",
        "depth_cm": "22.40",
        "depth_inch": "8.82",
        "width_cm": "32.40",
        "width_inch": "12.76",
        "colors": "Era grey",
        "build_materials": "Plastic",
        "peripheral_interfaces": "2 X USB 3.0,1 X USB 2.0,SD card reader",
        "video_interfaces": "1 X HDMI",
        "webcam_mp": "0.920",
        "keyboard_type": "Backlit keyboard",
        "charger": "45W (2.31A - 19.5VDC)",
        "other_info": "2 x speakers,Microphone,Stylus (optional)"
      },
      "battery": { "capacity": "42", "cell_type": "Li-Ion", "other_info": "" },
      "warranty": {
        "years": "1",
        "type_short": "Standard",
        "type_long": "Standard Pick-up & Return"
      },
      "operating_system": "Windows Home 10.00",
      "config_score": "33.54",
      "config_price": "641",
      "config_price_min": "633",
      "config_price_max": "649",
      "battery_life_raw": "6.6",
      "battery_life_hours": "6:30",
      "total_storage_capacity": "1000"
    }
  },
  "daily_hits_left": "297"
}