{
  "code": 26,
  "message": "Valid method.",
  "result": {
    "0": {
      "model_info": [
        {
          "id": 1207,
          "noteb_name": "Acer Swift 3 SF315-51G  (2018) (US)",
          "name": "Acer Swift 3 SF315-51G",
          "submodel_info": [" (2018)", "(US)"]
        }
      ],
      "config_id": "16951360131018000384",
      "model_resources": {
        "thumbnail": "https://noteb.com/res/img/models/thumb/t_949_1.jpg",
        "image_1": "https://noteb.com/res/img/models/949_1.jpg",
        "image_2": "https://noteb.com/res/img/models/949_2.jpg",
        "image_3": "https://noteb.com/res/img/models/949_3.jpg",
        "image_4": "https://noteb.com/res/img/models/949_4.jpg",
        "official_link": "https://www.acer.com/ac/en/US/content/model/NX.GSJAA.001",
        "official_link2": null,
        "launch_date": "2017-09-01",
        "primary_model": "1139"
      },
      "cpu": {
        "prod": "Intel",
        "model": "i5-8250U",
        "lithography": "14",
        "cache": "6",
        "base_speed": "1.60",
        "boost_speed": "3.40",
        "cores": "4",
        "tdp": "15",
        "other_info": "SSE4.2,AVX2.0,64-bit,HT,VT-x,VT-d,TBT 2.0",
        "rating": "47.9",
        "integrated_video_id": "451",
        "integrated_video": "Intel HD Graphics 620"
      },
      "display": {
        "size": "15.6",
        "horizontal_resolution": "1920",
        "vertical_resolution": "1080",
        "type": "LED IPS",
        "sRGB": "60",
        "touch": "no",
        "other_info": ""
      },
      "memory": { "size": "8", "speed": "2133", "type": "DDR4" },
      "primary_storage": {
        "model": "SSD M.2 SATA",
        "cap": "128",
        "rpm": null,
        "read_speed": "290"
      },
      "secondary_storage": {
        "model": "HDD",
        "cap": "1000",
        "rpm": "5400",
        "read_speed": "114"
      },
      "gpu": {
        "prod": "Nvidia",
        "model": "GeForce MX150",
        "architecture": "Pascal",
        "lithography": "14",
        "shaders": "384",
        "base_speed": "1227",
        "boost_speed": "1468",
        "shader_speed": "1227",
        "memory_speed": "1502",
        "memory_bandwidth": "64",
        "memory_size": "2048",
        "memory_type": "GDDR5",
        "tdp": "30",
        "other_info": "GPU Boost 3.0,Optimus,Nvidia PhysX,Nvidia CUDA",
        "rating": "13.0"
      },
      "wireless_card": {
        "model": "Wireless-AC 7265",
        "speed": "867",
        "other_info": "Bluetooth 4.0,dual band,2 x antennas,Intel Wireless Display,Intel vPro Technology Support"
      },
      "optical_drive": { "type": "none", "other_info": "" },
      "motherboard": {
        "ram_slots": "soldered",
        "lan_card": "none",
        "storage_slots": "1 X M.2 SATA/PCIe,1 X SATA 3.0",
        "other_info": "Realtek ALC255 audio,Optimus"
      },
      "chassis": {
        "height_cm": "1.89",
        "height_inch": "0.74",
        "depth_cm": "25.50",
        "depth_inch": "10.04",
        "width_cm": "37.00",
        "width_inch": "14.57",
        "colors": "Black,Grey",
        "build_materials": "Metal",
        "peripheral_interfaces": "1 X USB 2.0,1 X USB-C 3.1,2 X USB 3.0,SD card reader",
        "video_interfaces": "1 X HDMI",
        "webcam_mp": "0.920",
        "keyboard_type": "Backlit keyboard",
        "charger": "65W (3.42A - 19VDC)",
        "other_info": "2 x speakers,Microphone,Fingerprint reader"
      },
      "battery": { "capacity": "48", "cell_type": "Li-Ion", "other_info": "" },
      "warranty": {
        "years": "2",
        "type_short": "Standard",
        "type_long": "2 years is standard in Europe. Usually not available in other regions."
      },
      "operating_system": "Windows Home 10.00",
      "config_score": "38.03",
      "config_price": "747",
      "config_price_min": "738",
      "config_price_max": "756",
      "battery_life_raw": "5.4",
      "battery_life_hours": "5:25",
      "total_storage_capacity": "1128"
    }
  },
  "daily_hits_left": "268"
}
